phenomena,year,context1,sentence,context2,text_name,sent_id,,,,,,,,,
"Comment,NfR",1876,"Das geschah an der aeschen Straße nahe dem Cömeterium des heiligen Kalixtus in einem halbverschütteten Gang der Katakomben, jener rätselhaften unterirdischen Wege, die unter den Straßen und Plätzen Roms fast eine zweite Stadt bildeten. ","Es sind diese geheimnisvollen Räume – ursprünglich alte Begräbnisplätze, oft die Zuflucht der jungen Christengemeinde – so vielfach verschlungen und ihre Kreuzungen, Endpunkte, Aus- und Eingänge so schwierig zu finden, daß nur unter ortvertrautester Führung ihre inneren Tiefen betreten werden können. ","Aber die Männer, deren geheimen Verkehr wir diesmal belauschen, fürchteten keine Gefahr. ",Dahn,67,,,,,,,,,
"Comment,NfR",1930,"Hunderte Töne waren zu einem drahtigen Geräusch ineinander verwunden, aus dem einzelne Spitzen vorstanden, längs dessen schneidige Kanten liefen und sich wieder einebneten, von dem klare Töne absplitterten und verflogen. ","An diesem Geräusch, ohne daß sich seine Besonderheit beschreiben ließe, würde ein Mensch nach jahrelanger Abwesenheit mit geschlossenen Augen erkannt haben, daß er sich in der Reichshaupt- und Residenzstadt Wien befinde. ",Städte lassen sich an ihrem Gang erkennen wie Menschen. ,Musil,16,,,,,,,,,
"Comment,NfR",1809,"»So schließen wir uns denn gleich«, sagte der Hauptmann, »an dasjenige wieder an, was wir oben schon benannt und besprochen haben. Zum Beispiel was wir Kalkstein nennen, ist eine mehr oder weniger reine Kalkerde, innig mit einer zarten Säure verbunden, die uns in Luftform bekannt geworden ist. Bringt man ein Stück solchen Steines in verdünnte Schwefelsäure, so ergreift diese den Kalk und erscheint mit ihm als Gips; jene zarte, luftige Säure hingegen entflieht. ","Hier ist eine Trennung, eine neue Zusammensetzung entstanden, und man glaubt sich nunmehr berechtigt, sogar das Wort Wahlverwandtschaft anzuwenden, weil es wirklich aussieht, als wenn ein Verhältnis dem andern vorgezogen, eins vor dem andern erwählt würde.","« »Verzeihen Sie mir,« sagte Charlotte, »wie ich dem Naturforscher verzeihe, aber ich würde hier niemals eine Wahl, eher eine Naturnotwendigkeit erblicken, und diese kaum; denn es ist am Ende vielleicht gar nur die Sache der Gelegenheit.",Goethe,634,,,,,,,,,
"Comment,NfR*",1931,"Und wie ist es mit dem Vertrauen? Kann ich dem, welchem ich Aug in Aug vertraue, noch ebenso vertrauen, wenn ich ihn nicht sehe und wenn die Moosdecke uns trennt?","Es ist verhältnismäßig leicht, jemandem zu vertrauen, wenn man ihn gleichzeitig überwacht oder wenigstens überwachen kann, es ist vielleicht sogar möglich, jemandem aus der Ferne zu vertrauen, aber aus dem Innern des Baues, also einer anderen Welt heraus, jemandem außerhalb völlig zu vertrauen, ich glaube, das ist unmöglich.","Aber solche Zweifel sind noch nicht einmal nötig, [...].",Kafka,183,"[48, 46]",,,,,,,,
"Comment,NfR*",1930,"Die Lufttemperatur stand in einem ordnungsgemäßen Verhältnis zur mittleren Jahrestemperatur, zur Temperatur des kältesten wie des wärmsten Monats und zur aperiodischen monatlichen Temperaturschwankung. Der Auf- und Untergang der Sonne, des Mondes, der Lichtwechsel des Mondes, der Venus, des Saturnringes und viele andere bedeutsame Erscheinungen entsprachen ihrer Voraussage in den astronomischen Jahrbüchern. Der Wasserdampf in der Luft hatte seine höchste Spannkraft, und die Feuchtigkeit der Luft war gering.","Mit einem Wort, das das Tatsächliche recht gut bezeichnet, wenn es auch etwas altmodisch ist: Es war ein schöner Augusttag des Jahres 1913.","Autos schossen aus schmalen, tiefen Straßen in die Seichtigkeit heller Plätze. Fußgängerdunkelheit bildete wolkige Schnüre.",Musil,11,"[23, 6]",,,,,,,,
"Comment,NfR*",1876,"Er war groß und hager, aber kräftig, von breiter Brust und seine Muskeln von eitel Stahl. Ein Purpursaum an der Toga und zierliche Sandalen verrieten Reichtum, Rang, und Geschmack, aber sonst verhüllte ein langer, brauner Soldatenmantel die ganze Unterkleidung der Gestalt.","Sein Kopf war von denen, die man, einmal gesehen, nie mehr vergißt.","Das dichte, noch glänzend schwarze Haar war nach Römerart kurz und rund um die gewölbte, etwas zu große Stirn und die edel geformten Schläfe geschoren, tief unter den fein geschweiften Brauen waren die schmalen Augen geborgen, in deren unbestimmtem Dunkelgrau ein ganzes Meer versunkener Leidenschaften, aber noch bestimmter der Ausdruck kältester Selbstbeherrschung lag.",Dahn,184,"[12, 7]",,,,,,,,
"Comment,NfR*",1898,"›Die Prinzen machen ihm den Hof‹, so geruhten Sie zu bemerken, und ich antwortete: ›Ja, das ist es eben.‹ Und diese Worte kann ich ihnen nur wiederholen.","Die Prinzen - ja, damit hängt es zusammen und noch mehr damit, daß die feinen Regimenter immer feiner werden.","Gucken Sie sich mal die alten Ranglisten an, das heißt wirklich alte, voriges Jahrhundert und dann so bis anno sechs.",Fontane,352,"[18, 7]",,,,,,,,
"Comment,NfR*",1797,"Ich hatte Jahre schon in Tina Langeweile. Ich wollt in die Welt. Geh vorerst nach Smyrna, sagte mein Vater, lerne da die Künste der See und des Kriegs, lerne die Sprache gebildeter Völker und ihre Verfassungen und Meinungen und Sitten und Gebräuche, prüfe alles und wähle das Beste! – Dann kann es meinetwegen weiter gehn. Lern auch ein wenig Geduld! setzte die Mutter hinzu, und ich Nahms mit Dank an.","Es ist entzückend, den ersten Schritt aus der Schranke der Jugend zu tun, es ist, als dächte ich meines Geburtstags, wenn ich meiner Abreise von Tina gedenke.","Es war eine neue Sonne über mir, und Land und See und Luft genoß ich wie zum ersten Male.",Hölderlin,236,"[27, 13]",,,,,,,,
"Comment,NfR*",1771,"Der Gemütszustand des ältern Fräuleins störte dieses ruhige Glück. Sie war das einzige Kind, welches der Baron P. mit seiner ersten Gemahlin, einer Lady Watson , die er auf einer Gesandtschaft in England geheiratet, erzeugt hatte.","Dieses Fräulein schien zu aller sanften Liebenswürdigkeit einer Engländerin auch den melancholischen Charakter, der diese Nation bezeichnet, von ihrer Mutter geerbt zu haben.","Ein stiller Gram war auf ihrem Gesichte verbreitet. Sie liebte die Einsamkeit, verwendete sie aber allein auf fleißiges Lesen der besten Bücher; [...].",LaRoche,112,"[23, 4]",,,,,,,,
"Comment,NfR*",1668,"Kaum hatte ich mich zum Schlaf bequemet, da höret ich folgende Stimme: »O große Liebe gegen uns undankbare Menschen! Ach mein einziger Trost, meine Hoffnung, mein Reichtum, mein Gott!« und so dergleichen mehr, daß ich nicht alles merken noch verstehen können.","Dieses waren wohl Worte, die einen Christenmenschen, der sich in einem solchen Stand, wie ich mich dazumal befunden, billig aufmuntern, trösten und erfreuen hätten sollen.","Aber, o Einfalt und Unwissenheit! es waren mir nur böhmische Dörfer, und alles eine ganz unverständliche Sprache, aus deren ich nicht allein nichts fassen konnte, sondern auch eine solche, vor deren Seltsamkeit ich mich entsatzte.",Grimmelshausen,227,"[25, 20]",,,,,,,,
NfR,1942,"War es wirklich die Schlacht von Verdun, die die Schulbuben hörten, wenn sie sich hinter Zahlbach auf die Erde legten, oder nur das fortwährende Zittern der Erde unter den Eisenbahnzügen und Märschen der Armeen? Manche von diesen Buben standen später vor den Gerichten. Manche, weil sie sich mit den Soldaten der Okkupationsarmee verbrüdert, manche, weil sie ihnen unter die Schienen Lunten gelegt hatten. Auf dem Gerichtsgebäude wehten die Fahnen der Interalliierten Kommission."," Dass man die Fahnen eingeholt hat und gegen die schwarz-rot-goldene vertauscht, die das Reich damals noch hatte, das ist noch längst keine zehn Jahre her. ","Selbst die Kinder haben sich neulich daran erinnert, als das hundertvierundvierzigste Infanterie-Regiment zum ersten Mal wieder mit klingendem Spiel über die Brücke zog. ",Seghers,114,,,,,,,,,
NfR,1898,"Schließlich ist es doch was Großes, diese Naturwissenschaften, dieser elektrische Strom, tipp, tipp, tipp, und wenn uns daran läge (aber uns liegt nichts daran), so könnten wir den Kaiser von China wissen lassen, daß wir hier versammelt sind und seiner gedacht haben. Und dabei diese merkwürdigen Verschiebungen in Zeit und Stunde. Beinahe komisch. ","Als anno siebzig die Pariser Septemberrevolution ausbrach, wußte man's in Amerika drüben um ein paar Stunden früher, als die Revolution überhaupt da war. ",Ich sagte: Septemberrevolution. ,Fontane,490,,,,,,,,,
NfR,1898,"Der alte Stechlin schüttelte jedem die Hand und sprach ihnen aus, wie glücklich er über ihren Besuch sei. »Seien Sie mir herzlich willkommen, meine Herren. Sie haben keine Ahnung, welche Freude Sie mir machen, einem vergrätzten alten Einsiedler. ","Man sieht nichts mehr, hört nichts mehr. ",Ich hoffe auf einen ganzen Sack voll Neuigkeiten.« ,Fontane,269,,,,,,,,,
NfR,1893,"Wie staunten die Leute, als sie mich erblickten! Sie starrten mich an, als ob sie mich für ein Gespenst hielten. Die See tobte noch so, daß wir brüllen mußten, um uns zu verstehen. Sie waren Fischersleute. Der Sturm hatte unser Schiff gegen die Tortugas getrieben, und zwar gegen diejenige Insel, auf welcher sich Fort Jefferson befindet. ",In diesem waren damals konföderierte Kriegsgefangene interniert.," Die Fischer nahmen sich meiner auf das freundlichste an und versahen mich mit frischer Wäsche und den notwendigsten Kleidungsstücken, denn ich war nur so bekleidet, wie man sich während einer Seereise schlafen zu legen pflegt.",May,169,,,,,,,,,
NfR,1942,"Norden und Süden, Osten und Westen haben ineinandergebrodelt, aber das Land wurde nichts von alledem und behielt doch von allem etwas. Reiche wie farbige Blasen sind aus dem Land im Rücken des Schäfers Ernst herausgestiegen und fast sofort zerplatzt. Sie hinterließen keinen Limes und keine Triumphbögen und keine Heerstraßen, nur ein paar zersprungene Goldbänder von den Fußknöcheln ihrer Frauen. Aber sie waren so zäh und unausrottbar wie Träume. Und so stolz steht der Schäfer da, so vollkommen gleichmütig, als wüsste er all das und stünde nur darum so da, und vielleicht, wenn er auch nichts davon weiß, steht er wirklich darum so da. ","Dort, wo die Chaussee in die Autobahn mündet, wurde das Frankenheer gesammelt, als man den Übergang über den Main suchte. ","Hier ritt der Mönch herauf zwischen Mangolds und Marnets Gehöft, hinein in vollkommene Wildnis, die von hier aus noch keiner betreten hatte, ein zarter Mann auf einem Eselchen, die Brust geschützt mit dem Panzer des Glaubens, gegürtet mit dem Schwert des Heils, und er brachte die Evangelien und die Kunst, Äpfel zu okulieren. ",Seghers,90,,,,,,,,,
NfR,1898,"Gewiß, Herr von Stechlin«, sagte Czako. »Erstlich aus reiner Gourmandise, dann aber auch aus Forschertrieb oder Fortschrittsbedürfnis. Man will doch an dem, was gerade gilt oder überhaupt Menschheitsentwicklung bedeutet, auch seinerseits nach Möglichkeit teilnehmen, und da steht denn Fischnahrung jetzt obenan. Fische sollen außerdem viel Phosphor enthalten, und Phosphor, so heißt es, macht ›helle‹.« »Gewiß«, kicherte Frau von Gundermann, die sich bei dem Wort »helle« wie persönlich getroffen fühlte. ","»Phosphor war ja auch schon, eh die Schwedischen aufkamen.«"," »Oh, lange vorher«, bestätigte Czako. ",Fontane,502,,,,,,,,,
NfR,1809," »Nur nicht zu geschwind mit Ihrem Vortrag!« sagte Charlotte, »damit ich zeigen kann, daß ich Schritt halte. Sind wir nicht hier schon zu den Verwandtschaften gelangt?« »Ganz richtig,« erwiderte der Hauptmann; »und wir werden sie gleich in ihrer vollen Kraft und Bestimmtheit kennenlernen. Diejenigen Naturen, die sich beim Zusammentreffen einander schnell ergreifen und wechselseitig bestimmen, nennen wir verwandt. ","An den Alkalien und Säuren, die, obgleich einander entgegengesetzt und vielleicht eben deswegen, weil sie einander entgegengesetzt sind, sich am entschiedensten suchen und fassen, sich modifizieren und zusammen einen neuen Körper bilden, ist diese Verwandtschaft auffallend genug. ","Gedenken wir nur des Kalks, der zu allen Säuren eine große Neigung, eine entschiedene Vereinigungslust äußert! [...]« ",Goethe,607,,,,,,,,,
NfR,1787,"Diese ganze Zeit über stand der Prinz furchtlos und ruhig, die Augen starr auf die Erscheinung gerichtet. »Ja! Ich erkenne dich,« rief er endlich voll Rührung aus, »du bist Lanoy, du bist mein Freund – – Woher kommst du?«",»Die Ewigkeit ist stumm.,Frage mich aus dem vergangenen Leben.« ,Schiller,446,,,,,,,,,
NfR,1797,"Aber es geht alles auf und unter in der Welt, und es hält der Mensch mit aller seiner Riesenkraft nichts fest. Ich sah einmal ein Kind die Hand ausstrecken, um das Mondlicht zu haschen; aber das Licht ging ruhig weiter seine Bahn. ","So stehn wir da, und ringen, das wandelnde Schicksal anzuhalten."," O wer ihm nur so still und sinnend, wie dem Gange der Sterne, zusehen könnte!",Hölderlin,432,,,,,,,,,
NfR,1797,"Es ist, als zürnt ich meinem Adamas, daß er mich verließ, aber ich zürn ihm nicht. O er wollte ja wieder kommen!",In der Tiefe von Asien soll ein Volk von seltener Trefflichkeit verborgen sein;,dahin trieb ihn seine Hoffnung weiter. ,Hölderlin,177,,,,,,,,,
"Comment,GI,NfR",1930,"Leona verachtete ihn ein bißchen, obgleich sie natürlich treu an ihm festhielt, und Ulrich wußte das. Er wußte übrigens wohl, was sich in Leonas Gesellschaft gehörte, aber die Zeit, wo er so etwas noch über die Lippen gebracht hätte und seine Lippen noch einen Schnurrbart trugen, lag zu weit zurück. ","Und wenn man etwas nicht mehr zuwege bringt, das man früher gekonnt hat, es mag noch so dumm gewesen sein, so ist das doch genau so, wie wenn der Schlagfluß in die Hand und in das Bein gefahren ist. ","Die Augäpfel schlotterten ihm, wenn er seine Freundin ansah, der Speise und Trank zu Kopf gestiegen waren.",Musil,266,,,,,,,,,
"Comment,GI,NfR",1910,"Die Frau erschrak und hob sich aus sich ab, zu schnell, zu heftig, so daß das Gesicht in den zwei Händen blieb. Ich konnte es darin liegen sehen, seine hohle Form. Es kostete mich unbeschreibliche Anstrengung, bei diesen Händen zu bleiben und nicht zu schauen, was sich aus ihnen abgerissen hatte. Mir graute, ein Gesicht von innen zu sehen, aber ich fürchtete mich doch noch viel mehr vor dem bloßen wunden Kopf ohne Gesicht. Ich fürchte mich. ","Gegen die Furcht muß man etwas tun, wenn man sie einmal hat. ","Es wäre sehr häßlich, hier krank zu werden, und fiele es jemandem ein, mich ins Hotel-Dieu zu schaffen, so würde ich dort gewiß sterben. Dieses Hôtel ist ein angenehmes Hôtel, ungeheuer besucht.",Rilke,103,,,,,,,,,
"Comment,GI,NfR",1942,[Kapitelanfang],Vielleicht sind in unserem Land noch nie so merkwürdige Bäume gefällt worden als die sieben Platanen auf der Schmalseite der Baracke III.,"Ihre Kronen waren schon früher gekuppt worden aus einem Anlass, den man später erfahren wird. In Schulterhöhe waren gegen die Stämme Querbretter genagelt, sodass die Platanen von weitem sieben Kreuzen glichen. Der neue Lagerkommandant, er hieß Sommerfeld, ließ alles sofort zu Kleinholz zusammenschlagen.",Seghers,8,,,,,,,,,
"Comment,GI,NfR",1924," Zwischendurch betrübte Joachim sich und gedachte seines Loses. »Ja, da sitzen wir nun und lachen,« sagte er mit schmerzendem Gesicht und zuweilen von den Erschütterungen seines Zwerchfelles unterbrochen; »und dabei ist gar nicht abzusehen, wann ich hier wegkomme, denn wenn Behrens sagt: noch ein halbes Jahr, dann ist es knapp gerechnet, man muß sich auf mehr gefaßt machen. Aber es ist doch hart, sage mal selbst, ob es nicht traurig für mich ist. Da war ich nun schon genommen, und im nächsten Monat könnte ich meine Offiziersprüfung machen. Und nun lungere ich hier herum mit dem Thermometer im Mund und zähle die Schnitzer von dieser ungebildeten Frau Stöhr und versäume die Zeit. ","Ein Jahr spielt solch eine Rolle in unserem Alter, es bringt im Leben unten so viele Veränderungen und Fortschritte mit sich. ","Und ich muß hier stagnieren wie ein Wasserloch, – ja, ganz wie ein fauliger Tümpel, es ist gar kein zu krasser Vergleich …« Sonderbarerweise antwortete Hans Castorp hierauf nur mit der Frage, ob man hier eigentlich Porter bekommen könne, [...].",Mann,383,,,,,,,,,
"Comment,GI,NfR",1848,"Auch hier siegreich, ziehen endlich zwei Ströme, die alte Donau und die geschwollnere Woge des Volks, sich kreuzend quer unter- und übereinander, die Donau ihrem alten Flußbette nach, der Strom des Volkes, der Eindämmung der Brücke entnommen, ein weiter, tosender See, sich ergießend in alles deckender Überschwemmung. Ein neu Hinzugekommener fände die Zeichen bedenklich. Es ist aber der Aufruhr der Freude, die Losgebundenheit der Lust. Schon zwischen Stadt und Brücke haben sich Korbwagen aufgestellt für die eigentlichen Hierophanten dieses Weihfestes: die Kinder der Dienstbarkeit und der Arbeit. Überfüllt und dennoch im Galopp durchfliegen sie die Menschenmasse, die sich hart vor ihnen öffnet und hinter ihnen schließt, unbesorgt und unverletzt. ","Denn es ist in Wien ein stillschweigender Bund zwischen Wagen und Menschen: nicht zu überfahren, selbst im vollen Lauf; und nicht überfahren werden, auch ohne alle Aufmerksamkeit.", Von Sekunde zu Sekunde wird der Abstand zwischen Wagen und Wagen kleiner. Schon mischen sich einzelne Equipagen der Vornehmeren in den oft unterbrochenen Zug. ,Grillparzer,22,,,,,,,,,
"Comment,GI,NfR",1809,"Der fallende Wassertropfen ist rund; von den Quecksilberkügelchen haben Sie selbst gesprochen; ja ein fallendes geschmolzenes Blei, wenn es Zeit hat, völlig zu erstarren, kommt unten in Gestalt einer Kugel an.« »Lassen Sie mich voreilen,« sagte Charlotte, »ob ich treffe, wo Sie hinwollen. ","Wie jedes gegen sich selbst einen Bezug hat, so muß es auch gegen andere ein Verhältnis haben.«"," »Und das wird nach Verschiedenheit der Wesen verschieden sein,« fuhr Eduard eilig fort. »Bald werden sie sich als Freunde und alte Bekannte begegnen, die schnell zusammentreten, sich vereinigen, ohne aneinander etwas zu verändern, wie sich Wein mit Wasser vermischt. ",Goethe,588,,,,,,,,,
"Comment,GI,NfR",1802,"Man steht mit der Natur gerade in so unbegreiflich verschiedenen Verhältnissen, wie mit den Menschen; und wie sie sich dem Kinde kindisch zeigt, und sich gefällig seinem kindlichen Herzen anschmiegt, so zeigt sie sich dem Gotte göttlich, und stimmt zu dessen hohem Geiste. ","Man kann nicht sagen, daß es eine Natur gebe, ohne etwas überschwengliches zu sagen, und alles Bestreben nach Wahrheit in den Reden und Gesprächen von der Natur entfernt nur immer mehr von der Natürlichkeit. ","Es ist schon viel gewonnen, wenn das Streben, die Natur vollständig zu begreifen, zur Sehnsucht sich veredelt, zur zarten, bescheidenen Sehnsucht, die sich das fremde, kalte Wesen gern gefallen läßt, wenn sie nur einst auf vertrauteren Umgang rechnen kann.",Novalis,127,,,,,,,,,
"Comment,GI,NfR",1797,"Voll herrlicher Strenge und Kühnheit war unser gemeinsames Leben. Wie bist du denn so wortarm geworden? fragte mich einmal Alabanda mit Lächeln. In den heißen Zonen, sagt ich, näher der Sonne, singen ja auch die Vögel nicht.","Aber es geht alles auf und unter in der Welt, und es hält der Mensch mit aller seiner Riesenkraft nichts fest. ","Ich sah einmal ein Kind die Hand ausstrecken, um das Mondlicht zu haschen; aber das Licht ging ruhig weiter seine Bahn.",Hölderlin,429,,,,,,,,,
"Comment,GI,NfR",1766,"Wunderst du dich, Agathon, woher ich so wohl von ihm unterrichtet bin? Von ihm selbst. Was meine Augen nicht an ihm entdeckten, das sagte mir sein Mund. Denn er selbst war der unerschöpfliche Inhalt seiner Gespräche, so wie der einzige Gegenstand seiner Bewunderung. ",Ein Liebhaber von dieser Art sollte dem Ansehen nach wenig zu bedeuten haben.,Eine Zeit lang belustigte mich seine Torheit; allein er wurde ungestüm.,Wieland,206,,,,,,,,,
"Comment,GI,NfR",1797,"Alabanda schwieg eine Weile. Ich habe meine Lust an der Zukunft, begann er endlich wieder, und faßte feurig meine beiden Hände. Gott sei Dank! ich werde kein gemeines Ende nehmen. ","Glücklich sein, heißt schläfrig sein im Munde der Knechte. ","Glücklich sein! mir ist, als hätt ich Brei und laues Wasser auf der Zunge, wenn ihr mir sprecht von glücklich sein. So albern und so heillos ist das alles, wofür ihr hingebt eure Lorbeerkronen, eure Unsterblichkeit. ",Hölderlin,405,,,,,,,,,
"GI,NfR",1893,"Darum antwortete ich, indem ich mich niedersetzte: »Wenn Ihr mich für einen German haltet, so habt Ihr das Richtige getroffen, Master; die Bezeichnung Dutchman aber muß ich mir verbitten, sonst sehe ich mich gezwungen, Euch zu beweisen, daß ich eben kein Greenhorn bin. ",Man kann höflich und doch dabei ein alter Schlaukopf sein.«," » Pshaw !« meinte er gleichmütig. »Ihr seht mir just nicht so schlau aus. Gebt Euch keine Mühe, in Zorn zu kommen; ",May,283,,,,,,,,,
"GI,NfR",1898,Aber da höre ich eine Kutsche die Dorfstraße raufkommen. Das sind natürlich Gundermanns; die kommen immer zu früh. Der arme Kerl hat mal was von der Höflichkeit der Könige gehört und macht jetzt einen zu weitgehenden Gebrauch davon.,Autodidakten übertreiben immer.,Ich bin selber einer und kann also mitreden. ,Fontane,439,,,,,,,,,
"GI,NfR",1910,"Es wäre sehr häßlich, hier krank zu werden, und fiele es jemandem ein, mich ins Hotel-Dieu zu schaffen, so würde ich dort gewiß sterben. Dieses Hôtel ist ein angenehmes Hôtel, ungeheuer besucht. ","Man kann kaum die Fassade der Kathedrale von Paris betrachten ohne Gefahr, von einem der vielen Wagen, die so schnell wie möglich über den freien Plan dort hinein müssen, überfahren zu werden. ","Das sind kleine Omnibusse, die fortwährend läuten, und selbst der Herzog von Sagan müßte sein Gespann halten lassen, wenn so ein kleiner Sterbender es sich in den Kopf gesetzt hat, geradenwegs in Gottes Hôtel zu wollen.",Rilke,106,,,,,,,,,
"GI,NfR",1910,"Die Gasse begann von allen Seiten zu riechen. Es roch, soviel sich unterscheiden ließ, nach Jodoform, nach dem Fett von pommes frites, nach Angst. ",Alle Städte riechen im Sommer.,"Dann habe ich ein eigentümlich starblindes Haus gesehen, es war im Plan nicht zu finden, aber über der Tür stand noch ziemlich leserlich: Asyle de nuit. ",Rilke,20,,,,,,,,,
"GI,NfR",1942, Diese Hügel entlang zogen die Römer den Limes. ,"So viele Geschlechter waren verblutet, seitdem sie die Sonnenaltäre der Kelten hier auf den Hügeln verbrannt hatten, so viele Kämpfe durchgekämpft, dass sie jetzt glauben konnten, die besitzbare Welt sei endgültig umzäunt und gerodet. ","Aber nicht den Adler und nicht das Kreuz hat die Stadt dort unten im Wappen behalten, sondern das keltische Sonnenrad, die Sonne, die Marnets Äpfel reift. ",Seghers,80,,,,,,,,,
"GI,NfR",1893,"Ich sagte das mit einem gewissen Stolze. Er aber sah mir mit leichtem Lächeln – das bei seinen Totenkopfzügen wie ein höhnisches Grinsen erschien – in das Gesicht, schüttelte den Kopf und sagte: »Studiert! O wehe! Darauf bildet Ihr Euch jedenfalls viel ein? ","Und doch sind grad Leute Eurer Sorte am wenigsten befähigt, ihr Glück zu machen. ",Ich habe das oft genug erfahren. Habt Ihr eine Anstellung?« ,May,384,,,,,,,,,
"GI,NfR",1942,"Wir drängten uns um das Öfchen, um unser Zeug zu trocknen und weil der ungewohnte Anblick des offenen Feuers unsere Herzen aufwühlte. Der SA-Posten drehte uns den Rücken zu, er sah unwillkürlich durch das vergitterte Fenster hinaus. Das zarte graue Gefusel, nicht mehr als Nebel, war plötzlich zu einem scharfen Regen geworden, den einzelne heftige Windstöße gegen die Baracke schlugen. ","Und schließlich hört auch ein SA-Mann, sieht auch ein gargekochter SA-Mann den Einzug des Herbstes nur einmal in jedem Jahr.",Die Scheite knackten. ,Seghers,29,,,"GI,NfR",1942,"Ich bin heute nicht mehr so sicher, ob die paar Scheite, mit denen man unser gusseisernes Öfchen fütterte, wirklich von diesem Kleinholz waren. Damals waren wir davon überzeugt. Wir drängten uns um das Öfchen, um unser Zeug zu trocknen und weil der ungewohnte Anblick des offenen Feuers unsere Herzen aufwühlte. Der SA-Posten drehte uns den Rücken zu, er sah unwillkürlich durch das vergitterte Fenster hinaus. Das zarte graue Gefusel, nicht mehr als Nebel, war plötzlich zu einem scharfen Regen geworden, den einzelne heftige Windstöße gegen die Baracke schlugen. ","Und schließlich hört auch ein SA-Mann, sieht auch ein gargekochter SA-Mann den Einzug des Herbstes nur einmal in jedem Jahr."," Die Scheite knackten. Zwei blaue Flämmchen zeigten uns an, dass auch die Kohlen glühten. Fünf Schaufeln Kohlen waren uns zugebilligt, die nur auf Minuten die zugige Baracke anwärmen konnten, ja nicht einmal unser Zeug fertig trocknen. Wir aber dachten jetzt daran noch nicht. ",Seghers,29
"GI,NfR",1930,"Hunderte Töne waren zu einem drahtigen Geräusch ineinander verwunden, aus dem einzelne Spitzen vorstanden, längs dessen schneidige Kanten liefen und sich wieder einebneten, von dem klare Töne absplitterten und verflogen. An diesem Geräusch, ohne daß sich seine Besonderheit beschreiben ließe, würde ein Mensch nach jahrelanger Abwesenheit mit geschlossenen Augen erkannt haben, daß er sich in der Reichshaupt- und Residenzstadt Wien befinde. ",Städte lassen sich an ihrem Gang erkennen wie Menschen.,"Die Augen öffnend, würde er das gleiche an der Art bemerken, wie die Bewegung in den Straßen schwingt, bei weitem früher als er es durch irgendeine bezeichnende Einzelheit herausfände.",Musil,17,,,,,,,,,
"GI,NfR",1771,"Vergeben Sie mir, meine Freundin, daß ich Ihnen so viel über einen Punkt, worüber Sie Ursache haben sehr ruhig zu sein, vorschwatze. ","Es gibt Personen, bei denen es gar niemals eine Frage sein soll, ob sie auch gefallen werden; ","und ich müßte mich außerordentlich irren, wenn unsre Heldin nicht in diese Klasse gehörte. ",LaRoche,77,,,,,,,,,
"GI,NfR",1797,"Wie überall, so waren auch hier die Männer besonders verwahrlost und verwest. Gewisse Tiere heulen, wenn sie Musik anhören. Meine bessergezognen Leute hingegen lachten, wenn von Geistesschönheit die Rede war und von Jugend des Herzens. ","Die Wölfe gehen davon, wenn einer Feuer schlägt. ","Sahen jene Menschen einen Funken Vernunft, so kehrten sie, wie Diebe, den Rücken. ",Hölderlin,281,,,,,,,,,
"Comment,GI",1924," Es war rührend zu sehen, wie Hans Castorp arbeitete, um sich artig zu erweisen und seiner Schläfrigkeit Herr zu werden. Er ärgerte sich, so schlecht in Form zu sein und sah mit dem mißtrauischen Selbstbewußtsein junger Leute in dem Lächeln und dem aufmunternden Wesen des Assistenten Zeichen nachsichtigen Spottes. Er antwortete, indem er von den drei Wochen sprach, auch seines Examens erwähnte und hinzufügte, daß er, gottlob, ganz gesund sei. »Wahrhaftig?« fragte Dr. Krokowski, indem er seinen Kopf wie neckend schräg vorwärts stieß und sein Lächeln verstärkte … »Aber dann sind Sie eine höchst studierenswerte Erscheinung! ",Mir ist nämlich ein ganz gesunder Mensch noch nicht vorgekommen.,"Was für ein Examen haben Sie abgelegt, wenn die Frage erlaubt ist?« »Ich bin Ingenieur, Herr Doktor«, antwortete Hans Castorp mit bescheidener Würde.",Mann,412,,,,,,,,,
"Comment,GI",1910,"Sie alle haben einen eigenen Tod gehabt. Diese Männer, die ihn in der Rüstung trugen, innen, wie einen Gefangenen, diese Frauen, die sehr alt und klein wurden und dann auf einem ungeheueren Bett, wie auf einer Schaubühne, vor der ganzen Familie, dem Gesinde und den Hunden diskret und herrschaftlich hinübergingen. Ja die Kinder, sogar die ganz kleinen, hatten nicht irgendeinen Kindertod, sie nahmen sich zusammen und starben das, was sie schon waren, und das, was sie geworden wären."," Und was gab das den Frauen für eine wehmütige Schönheit, wenn sie schwanger waren und standen, und in ihrem großen Leib, auf welchem die schmalen Hände unwillkürlich liegen blieben, waren zwei Früchte: ein Kind und ein Tod. ","Kam das dichte, beinah nahrhafte Lächeln in ihrem ganz ausgeräumten Gesicht nicht davon her, daß sie manchmal meinten, es wüchsen beide?",Rilke,204,,,,,,,,,
"Comment,GI",1942,"Franz war ein mittelgroßer stämmiger Mensch, an die dreißig, mit ruhigen, wenn er so unter den Leuten herumging, fast schläfrigen Zügen. Jetzt aber, auf seinem liebsten Wegstück, der steilen Abfahrt zwischen den Feldern bis zur Chaussee, lag auf seinem Gesicht eine starke einfache Lebensfreude."," Vielleicht wird man später nicht verstehen, wieso Franz vergnügt sein konnte in der Haut, in der er steckte. ","Er war aber gerade vergnügt, er stieß sogar einen leisen glücklichen Schrei aus, als sein Fahrrad über zwei Erdwellen huppelte. ",Seghers,48,,,,,,,,,
"Comment,GI",1848,"Der Unterschied der Stände ist verschwunden, Bürger und Soldat teilt die Bewegung. An den Toren der Stadt wächst der Drang. Genommen, verloren und wiedergenommen, ist endlich der Ausgang erkämpft. Aber die Donaubrücke bietet neue Schwierigkeiten. Auch hier siegreich, ziehen endlich zwei Ströme, die alte Donau und die geschwollnere Woge des Volks, sich kreuzend quer unter- und übereinander, die Donau ihrem alten Flußbette nach, der Strom des Volkes, der Eindämmung der Brücke entnommen, ein weiter, tosender See, sich ergießend in alles deckender Überschwemmung. ",Ein neu Hinzugekommener fände die Zeichen bedenklich.,"Es ist aber der Aufruhr der Freude, die Losgebundenheit der Lust. Schon zwischen Stadt und Brücke haben sich Korbwagen aufgestellt für die eigentlichen Hierophanten dieses Weihfestes: die Kinder der Dienstbarkeit und der Arbeit. ",Grillparzer,18,,,,,,,,,
"Comment,GI",1809,"Die topographische Karte, auf welcher das Gut mit seinen Umgebungen nach einem ziemlich großen Maßstabe charakteristisch und faßlich durch Federstriche und Farben dargestellt war und welche der Hauptmann durch einige trigonometrische Messungen sicher zu gründen wußte, war bald fertig; ","denn weniger Schlaf als dieser tätige Mann bedurfte kaum jemand, so wie sein Tag stets dem augenblicklichen Zwecke gewidmet und deswegen jederzeit am Abende etwas getan war."," »Laß uns nun«, sagte er zu seinem Freunde, »an das übrige gehen, an die Gutsbeschreibung, wozu schon genugsame Vorarbeit da sein muß, aus der sich nachher Pachtanschläge und anderes schon entwickeln werden.«",Goethe,489,,,,,,,,,
"Comment,GI",1843,"Ich sage Euch, sie ist der Typus einer italienischen Schönheit. Wenn sie nur nicht so verdammt jüdisch aussähe, sagte wegwerfend der junge Horn, der Sohn und Erbe eines reichen Kaufmanns. Ich sagte es gleich zu meinem Vetter Hughes, den ich Ihnen, lieber Erlau! als einen Mitenthusiasten empfehlen kann, und der für nichts Augen hatte, als für diese Person, die mir wirklich mit all ihrer gepriesenen italienischen, oder sagten Sie orientalischen Schönheit? im höchsten Grade mißfallen hat. ","Wir lieben in unserer Familie diese Art von Schönheit nicht, es ist eine uns angeborene Antipathie, und mir wurde erst wieder in England bei den schlanken, blonden Insulanerinnen recht wohl, nachdem ich mich in Havre ein Jahr lang unter jenen kleinen, brünetten Französinnen in der Frankfurter Judengasse geglaubt hatte."," A propos , von Judengasse, lieber Ferdinand! fiel der Vetter, ein geborener Engländer, und erst seit wenig Tagen in dieser Stadt, dem Sprechenden ins Wort, wer war wohl das ganz junge Mädchen in der zweiten Loge rechts von der Bühne?",Lewald,12,,,,,,,,,
"Comment,GI",1848,"So hatten sie mir die Musik, die jetzt die Freude und zugleich der Stab meines Lebens ist, geradezu verhaßt gemacht. Wenn ich abends im Zwielicht die Violine ergriff, um mich nach meiner Art ohne Noten zu vergnügen, nahmen sie mir das Instrument und sagten, das verdirbt die Applikatur, klagten über Ohrfolter und verwiesen mich auf die Lehrstunde, wo die Folter für mich anging. ","Ich habe zeitlebens nichts und niemand so gehaßt, wie ich damals die Geige haßte."," Mein Vater, aufs äußerste unzufrieden, schalt mich häufig und drohte, mich zu einem Handwerke zu geben. Ich wagte nicht zu sagen, wie glücklich mich das gemacht hätte. ",Grillparzer,284,,,,,,,,,
"Comment,GI",1809,"Ich verarge dieser tätigen Frau keineswegs, daß sie verlangt, man soll die Früchte ihrer Sorgfalt äußerlich und deutlich sehen; aber es gibt auch verschlossene Früchte, die erst die rechten, kernhaften sind und die sich früher oder später zu einem schönen Leben entwickeln. Dergleichen ist gewiß Ihre Pflegetochter. Solange ich sie unterrichte, sehe ich sie immer gleichen Schrittes gehen, langsam, langsam vorwärts, nie zurück. Wenn es bei einem Kinde nötig ist, vom Anfange anzufangen, so ist es gewiß bei ihr. ","Was nicht aus dem Vorhergehenden folgt, begreift sie nicht. ","Sie steht unfähig, ja stöckisch vor einer leicht faßlichen Sache, die für sie mit nichts zusammenhängt. Kann man aber die Mittelglieder finden und ihr deutlich machen, so ist ihr das Schwerste begreiflich. ",Goethe,461,,,,,,,,,
"Comment,GI",1797,"Ich danke dir, daß du mich bittest, dir von mir zu erzählen, daß du die vorigen Zeiten mir ins Gedächtnis bringst. Das trieb mich auch nach Griechenland zurück, daß ich den Spielen meiner Jugend näher leben wollte."," Wie der Arbeiter in den erquickenden Schlaf, sinkt oft mein angefochtenes Wesen in die Arme der unschuldigen Vergangenheit.","Ruhe der Kindheit! himmlische Ruhe! wie oft steh ich stille vor dir in liebender Betrachtung, und möchte dich denken!",Hölderlin,58,,,,,,,,,
"Comment,GI",1787,"Tiefer Ernst und eine schwärmerische Melancholie herrschten in seiner Gemütsart. Seine Neigungen waren still, aber hartnäckig bis zum Übermaß, seine Wahl langsam und schüchtern, seine Anhänglichkeit warm und ewig. Mitten in einem geräuschvollen Gewühle von Menschen ging er einsam; in seine Phantasienwelt verschlossen, war er sehr oft ein Fremdling in der wirklichen. ","Niemand war mehr dazu geboren, sich beherrschen zu lassen, ohne schwach zu sein. ","Dabei war er unerschrocken und zuverlässig, sobald er einmal gewonnen war, und besaß gleich großen Mut, ein erkanntes Vorurteil zu bekämpfen und für ein anderes zu sterben. ",Schiller,26,,,,,,,,,
Comment,1931,"Ich hätte den ersten Gang so anlegen müssen, daß er, in gehörigem Abstand voneinander, zwei Eingänge gehabt hätte, so daß ich durch den einen Eingang mit aller unvermeidlichen Umständlichkeit hinabgestiegen wäre, rasch den Anfangsgang bis zum zweiten Eingang durchlaufen, die Moosdecke dort, die zu dem Zweck entsprechend hätte eingerichtet sein müssen, ein wenig gelüftet und von dort aus die Lage einige Tage und Nächte zu überblicken versucht hätte. ",So allein wäre es richtig gewesen.,"Zwar verdoppeln zwei Eingänge die Gefahr, aber dieses Bedenken hätte hier schweigen müssen, zumal der eine Eingang, der nur als Beobachtungsplatz gedacht war, ganz eng hätte sein können. ",Kafka,191,,,,,,,,,
Comment,1888,"Ging Hauke vorbei, so mauzte der Kater ihn an, und Hauke nickte ihm zu; ","die beiden wußten, was sie miteinander hatten."," Nun aber war's einmal im Frühjahr, und Hauke lag nach seiner Gewohnheit oft draußen am Deich, schon weiter unten dem Wasser zu, zwischen Strandnelken und dem duftenden Seewermut, und ließ sich von der schon kräftigen Sonne bescheinen. ",Storm,261,,,,,,,,,
Comment,1942,"Er sah Franz scharf an. Auf seinem regelmäßigen, beinahe schönen Gesicht lag ein Ausdruck von Belustigung. ",Seine starken blauen Augen waren für ein junges Gesicht zu kalt.,"»Woran verbrannt?«, fragte Franz. Felix zuckte mit Schultern und Brauen, er sah aus, als unterdrücke er ein Lachen. ",Seghers,292,,,,,,,,,
Comment,1910,"Ich will auch keinen Brief mehr schreiben. Wozu soll ich jemandem sagen, daß ich mich verändere? ","Wenn ich mich verändere, bleibe ich ja doch nicht der, der ich war, und bin ich etwas anderes als bisher, so ist klar, daß ich keine Bekannten habe. ","Und an fremde Leute, an Leute, die mich nicht kennen, kann ich unmöglich schreiben.",Rilke,68,,,,,,,,,
Comment,1924,"""Doch, hoch ist das alles schon. Aber wir selbst sind scheußlich hoch, mußt du bedenken. Sächzehnhundert Meter über dem Meer. ",Da kommen die Erhebungen nicht so zur Geltung.,"« »Ja, war das eine Kletterei! Mir ist angst und bange geworden, kann ich dir sagen.",Mann,185,,,,,,,,,
Comment,1931,"Wenn ich zurückkomme, der Friede wieder verschafft ist, werde ich alles endgültig verbessern, im Fluge wird sich das dann alles machen lassen. Ja, im Märchen geht alles im Fluge und zu den Märchen gehört auch dieser Trost. ","Besser wäre es, gleich jetzt vollkommene Arbeit zu tun, viel nützlicher, als sie immer wieder zu unterbrechen, sich auf Wanderschaft durch die Gänge zu begeben und neue Geräuschstellen festzustellen, was wahrhaftig sehr leicht ist, denn es erfordert nichts, als an einem beliebigen Ort stehenzubleiben und zu horchen. ",Und noch weitere unnütze Entdeckungen mache ich. ,Kafka,347,,,,,,,,,
Comment,1931,"Damals, als ich den Bau begann, konnte ich dort verhältnismäßig ruhig arbeiten, das Risiko war nicht viel größer als irgendwo sonst, heute aber hieße es fast mutwillig auf den ganzen Bau aufmerksam machen wollen, heute ist es nicht mehr möglich. ","Es freut mich fast, eine gewisse Empfindsamkeit für dieses Erstlingswerk ist ja auch vorhanden. ","Und wenn ein großer Angriff kommen sollte, welcher Grundriß des Eingangs könnte mich retten? Der Eingang kann täuschen, ablenken, den Angreifer quälen, das tut auch dieser zur Not. ",Kafka,104,,,,,,,,,
Comment,1893,Den Rotschimmel ließ ich natürlich auch zurück; ich brauchte ihn nicht mehr. ,"Wir alle waren der Ansicht, daß meine Abwesenheit nur eine kurze sein werde.","Es sollte aber anders kommen. Wir befanden uns, was ich noch gar nicht erwähnt habe, weil es auf die bisher erzählten Ereignisse keinen Einfluß gehabt hatte, mitten im Bürgerkriege. ",May,83,,,,,,,,,
Comment,1910,"Ein Hund bellt. Was für eine Erleichterung: ein Hund. Gegen Morgen kräht sogar ein Hahn, und das ist Wohltun ohne Grenzen. Dann schlafe ich plötzlich ein. Das sind die Geräusche. ","Aber es giebt hier etwas, was furchtbarer ist: die Stille. ","Ich glaube, bei großen Bränden tritt manchmal so ein Augenblick äußerster Spannung ein, die Wasserstrahlen fallen ab, die Feuerwehrleute klettern nicht mehr, niemand rührt sich. ",Rilke,54,,,,,,,,,
Comment,1888,"Er lief weiter und weiter, bis er einsam in der Öde stand, wo nur die Winde über den Deich wehten, wo nichts war als die klagenden Stimmen der großen Vögel, die rasch vorüberschossen; zu seiner Linken die leere weite Marsch, zur andern Seite der unabsehbare Strand mit seiner jetzt vom Eise schimmernden Fläche der Watten; ","es war, als liege die ganze Welt in weißem Tod.","Hauke blieb oben auf dem Deiche stehen, und seine scharfen Augen schweiften weit umher; aber von Toten war nichts mehr zu sehen; nur wo die unsichtbaren Wattströme sich darunter drängten, hob und senkte die Eisfläche sich in stromartigen Linien. ",Storm,212,,,,,,,,,
GI,1809,"Eine seiner besondern Eigenheiten, die er jedoch vielleicht mit mehrern Menschen teilt, war die, daß es ihm unerträglich fiel, wenn jemand ihm beim Lesen in das Buch sah. In früherer Zeit, beim Vorlesen von Gedichten, Schauspielen, Erzählungen, war es die natürliche Folge der lebhaften Absicht, die der Vorlesende so gut als der Dichter, der Schauspieler, der Erzählende hat, zu überraschen, Pausen zu machen, Erwartungen zu erregen; da es denn freilich dieser beabsichtigten Wirkung sehr zuwider ist, wenn ihm ein Dritter wissentlich mit den Augen vorspringt.","Er pflegte sich auch deswegen in solchem Falle immer so zu setzen, daß er niemand im Rücken hatte. ","Jetzt zu dreien war diese Vorsicht unnötig; und da es diesmal nicht auf Erregung des Gefühls, auf Überraschung der Einbildungskraft angesehen war, so dachte er selbst nicht daran, sich sonderlich in acht zu nehmen.",Goethe,531,,,,,,,,,
GI,1924,"Im Restaurant war es hell, elegant und gemütlich. Es lag gleich rechts an der Halle, den Konversationsräumen gegenüber, und wurde, wie Joachim erklärte, hauptsächlich von neu angekommenen, außer der Zeit speisenden Gästen, und von solchen, die Besuch hatten, benutzt. ","Aber auch Geburtstage und bevorstehende Abreisen wurden dort festlich begangen, sowie günstige Ergebnisse von Generaluntersuchungen. ","Manchmal gehe es hoch her im Restaurant, sagte Joachim; auch Champagner werde serviert. Jetzt saß niemand als eine einzelne etwa dreißigjährige Dame darin, die in einem Buche las, aber dabei vor sich hin summte und mit dem Mittelfinger der linken Hand immerfort leicht auf das Tischtuch klopfte.",Mann,332,,,,,,,,,
GI,1931,"Hier gibt es viele Feinde und noch mehr Helfershelfer der Feinde, aber sie bekämpfen sich auch gegenseitig und jagen in diesen Beschäftigungen am Bau vorbei. Niemanden habe ich in der ganzen Zeit geradezu am Eingang forschen sehen, zu meinem und zu seinem Glück, denn ich hätte mich, besinnungslos vor Sorge um den Bau, gewiß an seine Kehle geworfen. Freilich, es kam auch Volk, in dessen Nähe ich nicht zu bleiben wagte und vor denen ich, wenn ich sie nur in der Ferne ahnte, fliehen mußte, über ihr Verhalten zum Bau dürfte ich mich eigentlich mit Sicherheit nicht äußern, doch genügt es wohl zur Beruhigung, daß ich bald zurückkam, niemanden von ihnen mehr vorfand und den Eingang unverletzt. ","Es gab glückliche Zeiten, in denen ich mir fast sagte, daß die Gegnerschaft der Welt gegen mich vielleicht aufgehört oder sich beruhigt habe oder daß die Macht des Baues mich heraushebe aus dem bisherigen Vernichtungskampf. ","Der Bau schützt vielleicht mehr, als ich jemals gedacht habe oder im Innern des Baues zu denken wage.",Kafka,142,,,,,,,,,
GI,1930,"Ulrichs Freundin in jenen Tagen hieß Leontine und war Liedersängerin in einem kleinen Varieté; sie war groß, schlank und voll, aufreizend leblos, und er nannte sie Leona. Sie war ihm aufgefallen durch das feuchte Dunkel ihrer Augen, durch einen schmerzlich leidenschaftlichen Ausdruck ihres regelmäßigen, schönen, langen Gesichts und durch die gefühlvollen Lieder, die sie an Stelle von unzüchtigen sang. ","Alle diese altmodischen kleinen Gesänge hatten Liebe, Leid, Treue, Verlassenheit, Waldesrauschen und Forellenblinken zum Inhalt. ","Leona stand groß und bis in die Knochen verlassen auf der kleinen Bühne und sang sie mit der Stimme einer Hausfrau geduldig ins Publikum, und wenn dazwischen doch kleine sittliche Gewagtheiten unterliefen, so wirkten sie um so gespenstischer, als dieses Mädchen die tragischen wie die neckischen Gefühle des Herzens mit den gleichen mühsam buchstabierten Gebärden unterstützte.",Musil,225,,,,,,,,,
GI,1942,"Franz selbst, während er ganz verzweifelt nach einem noch so geringen Anzeichen einer noch so verschütteten Unruhe suchte, zwischen den Worten und selbst in den Augen, schimpfte genauso wie alle andern, stellte dieselben Fragen nach dem vergangenen Sonntag, machte dieselben Witze, dieselben zornigen harten Griffe beim Umkleiden. Wenn ihn jetzt jemand belauert hätte mit der gleichen Beharrlichkeit wie er die anderen, dieser andere wäre genauso enttäuscht über Franz gewesen. Franz bekam sogar einen Stich von Hass gegen alle diese Menschen, die überhaupt nicht merkten, dass irgendetwas in der Luft lag, oder es gar nicht merken wollten. War überhaupt etwas geschehen? ",Greiners Erzählungen waren meistens das reine Getratsche.,"Falls ihn sein Vetter Messer nicht anhielt, bei ihm, Franz, herumzuschnüffeln. Hat er mir denn was anmerken können, dachte Franz. Was hat er denn überhaupt erzählt? Tratsch und nochmals Tratsch. Dass dieser Kobisch sich beim Weinhandel angesoffen hat.",Seghers,226,,,,,,,,,
GI,1747,"Mein Bräutigam, mein lieber Graf, erwies mir bei meiner Ankunft die ersinnlichsten Liebkosungen; und ich glaube nicht, daß man glückseliger sein kann, als ich an seiner Seite war. Unser Beilager wurde ohne Gepränge, mit einem Worte, sehr still, aber gewiß sehr vergnügt vollzogen. ",Manches Fräulein wird diese beiden Stücke nicht zusammenreimen können.,Dem zu Gefallen muß ich eine kleine Beschreibung von meinem Beilager machen.,Gellert,125,,,,,,,,,
GI,1910,Was so ein kleiner Mond alles vermag. ,"Da sind Tage, wo alles um einen licht ist, leicht, kaum angegeben in der hellen Luft und doch deutlich. ","Das Nächste schon hat Töne der Ferne, ist weggenommen und nur gezeigt, nicht hergereicht; und was Beziehung zur Weite hat: der Fluß, die Brücken, die langen Straßen und die Plätze, die sich verschwenden, das hat diese Weite eingenommen hinter sich, ist auf ihr gemalt wie auf Seide.",Rilke,228,,,,,,,,,
GI,1910,"Ja es kam mir, ich weiß nicht weshalb, vor, als handle es sich um ein ganz junges Mädchen in Weiß, das jeden Augenblick bei uns eintreten könne. In demselben Tone hörte ich ihn auch von »unserer kleinen Anna Sophie« reden. Und als ich eines Tages nach diesem Fräulein fragte, das dem Großvater besonders lieb zu sein schien, erfuhr ich, daß er des Großkanzlers Conrad Reventlow Tochter meinte, weiland Friedrichs des Vierten Gemahlin zur linken Hand, die seit nahezu anderthalb hundert Jahren zu Roskilde ruhte. ","Die Zeitfolgen spielten durchaus keine Rolle für ihn, der Tod war ein kleiner Zwischenfall, den er vollkommen ignorierte, Personen, die er einmal in seine Erinnerung aufgenommen hatte, existierten, und daran konnte ihr Absterben nicht das geringste ändern. ","Mehrere Jahre später, nach dem Tode des alten Herrn, erzählte man sich, wie er auch das Zukünftige mit demselben Eigensinn als gegenwärtig empfand.",Rilke,383,,,,,,,,,
GI,1888,"Er hatte das von Kindesbeinen an geübt, und meistens blieb einer auf dem Schlicke liegen; aber ebensooft war er dort auch nicht zu holen; Hauke hatte schon daran gedacht, den Kater mitzunehmen und als apportierenden Jagdhund zu dressieren. Aber es gab auch hier und dort feste Stellen oder Sandlager; solchenfalls lief er hinaus und holte sich seine Beute selbst. ","Saß der Kater bei seiner Rückkehr noch vor der Haustür, dann schrie das Tier vor nicht zu bergender Raubgier so lange, bis Hauke ihm einen der erbeuteten Vögel zuwarf.","Als er heute, seine Jacke auf der Schulter, heimging, trug er nur einen ihm noch unbekannten, aber wie mit bunter Seide und Metall gefiederten Vogel mit nach Hause, und der Kater mauzte wie gewöhnlich, als er ihn kommen sah. ",Storm,269,,,,,,,,,
GI,,"Ja, lange nachdem das Vermögen, welches er damit erwarb, schon den Vergleich mit der Morgengabe einer rheinischen Industriellenfamilie aushielt, die seines Sohnes frühverstorbene Mutter in die Ehe gebracht hatte, schliefen diese in der Jugend erworbenen und im Mannesalter befestigten Beziehungen nicht ein. Obgleich sich der zu Ehren gekommene Gelehrte nun vom eigentlichen Rechtsgeschäft zurückzog und nur gelegentlich noch eine hochbezahlte Gutachtertätigkeit ausübte, wurden doch noch alle Ereignisse, die den Kreis seiner ehemaligen Gönner angingen, in eigenen Aufzeichnungen sorgfältig gebucht, mit großer Genauigkeit von den Vätern auf die Söhne und Enkel übertragen, und es ging keine Auszeichnung, keine Hochzeit, kein Geburts- oder Namenstag ohne ein Schreiben vorüber, das den Empfänger in einer zarten Mischung von Ehrerbietung und gemeinsamen Erinnerungen beglückwünschte.","Ebenso pünktlich liefen darauf auch jedesmal kurze Antwortschreiben ein, die dem lieben Freund und geschätzten Gelehrten dankten. ","So kannte sein Sohn dieses aristokratische Talent eines fast unbewußt, aber sicher wägenden Hochmuts von Jugend auf, welches das Maß einer Freundlichkeit gerade richtig bemißt, und die Unterwürfigkeit eines immerhin zum geistigen Adel gehörenden Menschen vor den Besitzern von Pferden, Äckern und Traditionen hatte ihn immer gereizt.",Musil,109,,,,,,,,,
Negativbsp - Speech,1924,"»Was für ein nettes Zimmer! Hier läßt es sich gut und gern ein paar Wochen hausen.« »Vorgestern ist hier eine Amerikanerin gestorben«, sagte Joachim. ","»Behrens meinte gleich, daß sie fertig sein würde, bis du kämest, und daß du das Zimmer dann haben könntest. ","Ihr Verlobter war bei ihr, englischer Marineoffizier, aber er benahm sich nicht gerade stramm. Jeden Augenblick kam er auf den Korridor hinaus, um zu weinen, ganz wie ein kleiner Junge. Und dann rieb er sich die Backen mit Cold-cream ein, weil er rasiert war und die Tränen ihn da so brannten. Vorgestern abend hatte die Amerikanerin noch zwei Blutstürze ersten Ranges, und damit war Schluß. Aber sie ist schon seit gestern morgen fort, und dann haben sie hier natürlich gründlich ausgeräuchert, mit Formalin, weißt du, das soll so gut sein für solche Zwecke.",Mann,283,,,,,,,,,
Negativbsp - Speech,1893,"Das fragt Ihr noch? Es wird ja überall von Euch erzählt, Ihr Schwerenöter! Seid ein Westmann geworden, wie er im Buche steht! Mr. White, der Ingenieur von der nächsten Sektion, war der erste, welcher Nachricht brachte; war voll des Lobes über Euch; ",das muß ich sagen.,Die Krone hat Euch Winnetou aufgesetzt.« »Wieso?« »Hat mir alles erzählt – alles!« »Was?,May,45,,,,,,,,,
Negativbsp - Speech,1898,"Czako wies darauf hin und sagte leise zu Rex: »Ein bißchen graulich«, - ein Gefühl, drin er sich bestärkt sah, als man bis auf den mit ungeheurer Raumverschwendung angelegten Oberflur gekommen war. Über einer nach hinten zu gelegenen Saaltür hing eine Holztafel mit der Inschrift: »Museum«, während hüben und drüben, an den Flurwänden links und rechts, mächtige Birkenmaser- und Ebenholzschränke standen, wahre Prachtstücke, mit zwei großen Bildern dazwischen, eines eine Burg mit dicken Backsteintürmen, das andre ein überlebensgroßer Ritter, augenscheinlich aus der Frundsbergzeit, wo das bunt Landsknechtliche schon die Rüstung zu drapieren begann. »Is wohl ein Ahn?»fragte Czako. »Ja, Herr Hauptmann. ",Und er ist auch unten in der Kirche.«," »Auch so wie hier?« »Nein, bloß Grabstein und schon etwas abgetreten. Aber man sieht doch noch, daß es derselbe ist.« Czako nickte.",Fontane,291,,,,,,,,,
Negativbsp - Speech,1888,"Als sie dem unten liegenden Hause des alten Haien nahe kam, ging sie den Akt, wie man bei uns die Trift- und Fußwege nennt, die schräg an der Seite des Deiches hinab- oder hinaufführen, zu den Häusern hinunter. Der alte Tede Haien stand eben vor der Tür und sah ins Wetter. »Na, Trin'!« sagte er, als sie pustend vor ihm stand und ihren Krückstock in die Erde bohrte, »was bringt Sie Neues in Ihrem Sack?«"," »Erst laß mich in die Stube, Tede Haien! ",dann soll Er's sehen!« Und ihre Augen sahen ihn mit seltsamem Funkeln an. »So komm Sie!« sagte der Alte.,Storm,308,,,,,,,,,
Negativbsp - Speech,1898,"Und nun traten sie, von dem Vorderzimmer her, in den etwas kleineren Wohnraum, in dem Spiegel und Toilette fehlten. Dafür aber war ein Rokokosofa da, mit hellblauem Atlas und weißen Blumen darauf. »Ja, Rex«, sagte Czako, »wie teilen wir nun? ","Ich denke, Sie nehmen nebenan den Himmel, und ich nehme das Rokokosofa, noch dazu mit weißen Blumen, vielleicht Lilien. ","Ich wette, das kleine Ding von Sofa hat eine Geschichte.« »Rokoko hat immer eine Geschichte«, bestätigte Rex.",Fontane,314,,,,,,,,,
Negativbsp - Speech,1893," »Ihr – Ihr – – Ihr seid es? Ihr seid da? Der Hauslehrer – – der – – der Surveyor – – der – – der – der verteufelte Old Shatterhand!« Dann warf er seine Arme um mich, zog mich an sich und küßte mich wiederholt hüben und drüben auf die Wangen, daß es nur so klatschte. »Old Shatterhand! ","Woher kennt Ihr diesen Namen?« fragte ich, als der Ausdruck seiner Freude ruhiger geworden war."," »Woher? Das fragt Ihr noch? Es wird ja überall von Euch erzählt, Ihr Schwerenöter!",May,38,,,,,,,,,
Negativbsp - Speech,1893,"Ich habe es gut mit Euch gemeint, denn Ihr habt etwas an Euch, was mein Wohlwollen erweckte.« »Vielleicht begegnen wir uns wieder!« »Schwerlich. Ich gehe heut hinüber ins Texas und will nach Mexiko hinein. ","Es ist wohl nicht anzunehmen, daß Euer Spaziergang dieselbe Richtung haben werde, und so – fare well , Sir! ","Und denkt bei Gelegenheit daran, daß ich Euch ein Greenhorn genannt habe! Von Old Death dürft Ihr das ruhig hinnehmen, denn er verbindet nicht die Absicht der Beleidigung damit, und es kann keinem Neulinge Schaden bringen, wenn er ein klein wenig bescheiden von sich denkt.«",May,478,,,,,,,,,
Negativbsp - Speech,1876,"»Zur Sache!« rief ein junger Römer dazwischen, mit kurzkrausem, schwarzem Haar und blitzenden, schwarzen Augen; ungeduldig warf er das Sagum von der linken Hüfte über die rechte Schulter zurück, daß das kurze Schwert sichtbar wurde. »Zur Sache, Priester! ",was soll heut' geschehn?,"« Silverius warf auf den Jüngling einen Blick, der lebhaften Unwillen über solch kecke Selbständigkeit nicht ganz mit salbungsvoller Ruhe zu verdecken vermochte.",Dahn,95,,,,,,,,,
Negativbsp - Speech,1942,"Plötzlich entdeckte er Anton Greiner, der sich zur Theke durchzwängte. Anton musste sich unter irgendeinem Vorwand eine Passagiergenehmigung verschafft haben, weil er sonst gar nicht in diesen Bau, nicht einmal in die Kantine hereinkam. ","Warum sucht er immer gerade mich, dachte Franz, warum will er immer gerade bei mir erzählen?"," Anton fasste ihn am Arm, ließ aber sofort wieder los, als ob in dieser Bewegung etwas Auffälliges liege, stellte sich wieder zu Felix und goß sein Helles herunter.",Seghers,299,,,,,,,,,
Negativbsp - Speech,1888,"»Erzählt, erzählt nur, Schulmeister«, riefen ein paar der Jüngeren aus der Gesellschaft. »Nun freilich«, sagte der Alte, sich zu mir wendend, »will ich gern zu Willen sein; aber es ist viel Aberglaube dazwischen und eine Kunst, es ohne diesen zu erzählen.«"," »Ich muß Euch bitten, den nicht auszulassen«, erwiderte ich; ","»traut mir nur zu, daß ich schon selbst die Spreu vom Weizen sondern werde!« Der Alte sah mich mit verständnisvollem Lächeln an.",Storm,106,,,,,,,,,
Negativbsp - Report,1893,"Wir kamen nach einem wahren Parforceritte an die Mündung des Rio Boxo de Natchitoches, wo wir erwarteten, einen von Winnetou zurückgelassenen Apachen vorzufinden. Leider ging diese Hoffnung nicht in Erfüllung. ","Freilich Spuren von Menschen, welche dagewesen waren, fanden wir, aber was für welche! ","Nämlich die Leichen der beiden Traders, welche uns Auskunft über das Dorf der Kiowas gegeben hatten. ",May,7,,,,,,,,,
Negativbsp - Report,1931,"Niemanden habe ich in der ganzen Zeit geradezu am Eingang forschen sehen, zu meinem und zu seinem Glück, denn ich hätte mich, besinnungslos vor Sorge um den Bau, gewiß an seine Kehle geworfen. ","Freilich, es kam auch Volk, in dessen Nähe ich nicht zu bleiben wagte und vor denen ich, wenn ich sie nur in der Ferne ahnte, fliehen mußte, über ihr Verhalten zum Bau dürfte ich mich eigentlich mit Sicherheit nicht äußern, doch genügt es wohl zur Beruhigung, daß ich bald zurückkam, niemanden von ihnen mehr vorfand und den Eingang unverletzt. ","Es gab glückliche Zeiten, in denen ich mir fast sagte, daß die Gegnerschaft der Welt gegen mich vielleicht aufgehört oder sich beruhigt habe oder daß die Macht des Baues mich heraushebe aus dem bisherigen Vernichtungskampf. ",Kafka,141,,,,,,,,,
Negativbsp - Report,1888," Der Deichgraf war aufgestanden. »Ihr braucht nicht zu erschrecken«, sprach er über den Tisch hin; »das ist nicht bloß für uns; Anno 17 hat es auch denen drüben gegolten; mögen sie auf alles vorgefaßt sein!«",Mich wollte nachträglich ein Grauen überlaufen.,"»Verzeiht!« sprach ich, »was ist das mit dem Schimmelreiter?« ",Storm,84,,,,,,,,,
Negativbsp - Report,1893,"Ich hatte mich an einem eisernen Träger festgehalten, ließ aber jetzt los; Herrgott, hilf, und rette mich! Es war mir, als ob ich von der See turmhoch emporgetragen würde; es drehte mich wie einen Ball im Kreise; ",es wirbelte mich in die Tiefe hinab und nahm mich wieder nach oben.,"Ich bewegte kein Glied, denn jetzt hätte mir alle Anstrengung nichts genützt, aber sobald die See das Land erreichte, mußte ich arbeiten, um nicht von ihr wieder zurückgerissen zu werden. ",May,130,,,,,,,,,
Negativbsp - Report,1931,"Besser wäre es, gleich jetzt vollkommene Arbeit zu tun, viel nützlicher, als sie immer wieder zu unterbrechen, sich auf Wanderschaft durch die Gänge zu begeben und neue Geräuschstellen festzustellen, was wahrhaftig sehr leicht ist, denn es erfordert nichts, als an einem beliebigen Ort stehenzubleiben und zu horchen. ",Und noch weitere unnütze Entdeckungen mache ich.,"Manchmal scheint es mir, als habe das Geräusch aufgehört, es macht ja lange Pausen, manchmal überhört man ein solches Zischen, allzusehr klopft das eigene Blut im Ohr, dann schließen sich zwei Pausen zu einer zusammen und ein Weilchen lang glaubt man, das Zischen sei für immer zu Ende. ",Kafka,348,,,,,,,,,
Negativbsp - Report,1898,"« »Czako, wenn Sie doch bloß das Necken lassen könnten!« »Ach, sagen Sie doch so was nicht, Rex; Sie lieben mich ja bloß um meiner Neckereien willen.«"," Und nun traten sie, von dem Vorderzimmer her, in den etwas kleineren Wohnraum, in dem Spiegel und Toilette fehlten. ","Dafür aber war ein Rokokosofa da, mit hellblauem Atlas und weißen Blumen darauf. ",Fontane,311,,,,,,,,,
Negativbsp - Report,1893,"Ich erkundigte mich nach einem abgehenden Schiffe. Es gab eines, einen Yankee, welcher die gegenwärtige ruhige Kriegslage benutzen wollte, nach Cuba zu gehen, wo ich Gelegenheit nach Deutschland oder wenigstens zunächst nach New York finden konnte. ",Ich entschloß mich kurz und ging an Bord., Vorsichtigerweise hätte ich mein Bargeld bei einer Bank gegen eine Anweisung umtauschen sollen; aber auf welchen Bankier in New Orleans war damals Verlaß! ,May,97,,,,,,,,,
Negativbsp - Report,1924,"»Desinfiszieren« sage sie, – aber in vollstem Ernst. Und den Assistenten Krokowski nenne sie den »Fomulus«. Das müsse man nun hinunterschlucken, ohne das Gesicht zu verziehen. Außerdem sei sie klatschsüchtig, wie übrigens die meisten hier oben, und einer anderen Dame, Frau Iltis, sage sie nach, sie trage ein »Sterilett«. »Sterilett nennt sie das, – das ist doch unbezahlbar!« ","Und halb liegend, gegen die Lehnen ihrer Stühle zurückgeworfen, lachten sie so sehr, daß ihnen der Leib bebte und sie fast gleichzeitig Schluckauf bekamen.", Zwischendurch betrübte Joachim sich und gedachte seines Loses. ,Mann,377,,,,,,,,,
Negativbsp - Report,1898,"Neben einem großen alten Eichenbüfett, ganz in Nähe der Tür, standen Engelke und Martin, Engelke in seiner sandfarbenen Livree mit den großen Knöpfen, Martin, dem nur oblag, mit der Küche Verbindung zu halten, einfach in schwarzem Rock und Stulpstiefeln."," Der alte Dubslav war in bester Laune, stieß gleich nach den ersten Löffeln Suppe mit Frau von Gundermann vertraulich an, dankte ihr für ihr Erscheinen und entschuldigte sich wegen der späten Einladung: ",»Aber erst um zwölf kam Woldemars Telegramm. [...] «,Fontane,462,,,,,,,,,
Negativbsp - Report,1942,"Hat sich die Zunge verbrannt, sagte jemand zu Franz, sein Nebenmann Felix, ein Freund Messers. Er sah Franz scharf an. Auf seinem regelmäßigen, beinahe schönen Gesicht lag ein Ausdruck von Belustigung. Seine starken blauen Augen waren für ein junges Gesicht zu kalt. »Woran verbrannt?«, fragte Franz. ","Felix zuckte mit Schultern und Brauen, er sah aus, als unterdrücke er ein Lachen. ","»Wenn ich nur jetzt sofort zu Hermann könnte«, dachte Franz wieder. ",Seghers,294,,,,,,,,,
Negativbsp - Description,1893,"Freilich Spuren von Menschen, welche dagewesen waren, fanden wir, aber was für welche! ","Nämlich die Leichen der beiden Traders, welche uns Auskunft über das Dorf der Kiowas gegeben hatten. ","Sie waren erschossen worden, und zwar von Santer, wie ich später durch Winnetou erfuhr. ",May,7,,,,,,,,,
Negativbsp - Description,1930,"Und wenn das Weiße, Niedliche, Schöne seine Fenster geöffnet hatte, blickte man in die vornehme Stille der Bücherwände einer Gelehrtenwohnung.",Diese Wohnung und dieses Haus gehörten dem Mann ohne Eigenschaften.," Er stand hinter einem der Fenster, sah durch den zartgrünen Filter der Gartenluft auf die bräunliche Straße und zählte mit der Uhr seit zehn Minuten die Autos, die Wagen, die Trambahnen und die von der Entfernung ausgewaschenen Gesichter der Fußgänger, die das Netz des Blicks mit quirlender Eile füllten; ...",Musil,68,,,,,,,,,
Negativbsp - Description,1888,"»Du bist noch so was schlanterig, Hauke!« sagte sie; »aber uns dienen zwei feste Augen besser als zwei feste Arme!« ","Sie sah ihn dabei fast düster an, aber Hauke hielt ihr tapfer stand.","»So komm«, fuhr sie fort; »der Wirt ist in der Stube, laß uns hineingehen!« ",Storm,425,,,,,,,,,
Negativbsp - Description,1924," Joachim lachte ebenfalls herzlich – es schien ihm wohlzutun –, und so kam es, daß die jungen Leute in großer Aufgeräumtheit aus ihrem Wagen stiegen, der sie zuletzt im Schritt, auf steiler, schleifenförmiger Anfahrt vor das Portal des Internationalen Sanatoriums Berghof getragen hatte. ","Nr. 34 Gleich zur Rechten, zwischen Haustor und Windfang, war die Concierge-Loge gelegen, ","und von dort kam ein Bediensteter von französischem Typus, der, am Telephon sitzend, Zeitungen gelesen hatte, in der grauen Livree des hinkenden Mannes am Bahnhof ihnen entgegen und führte sie durch die wohlbeleuchtete Halle, an deren linker Seite Gesellschaftsräume lagen. ",Mann,237,,,,,,,,,
Negativbsp - Description,1893,"Als ich ihn so vor mir sitzen sah, leuchtete es mir ein, wie man darauf gekommen war, ihn so zu nennen."," Er war sehr, sehr lang, und seine weit nach vorn gebeugte Gestalt schien wirklich nur aus Haut und Knochen zu bestehen. ",Die ledernen Hosen schwappten ihm nur so um die Beine. ,May,305,,,,,,,,,
Negativbsp - Description,1910,"Ja, sie war noch da. Dahinter? Ich suchte auf meinem Plan: Maison d'Accouchement. Gut. Man wird sie entbinden – man kann das. ","Weiter, rue Saint-Jacques, ein großes Gebäude mit einer Kuppel. ","Der Plan gab an Val-de-grâce, Hôpital militaire. Das brauchte ich eigentlich nicht zu wissen, aber es schadet nicht. ",Rilke,15,,,,,,,,,
Negativbsp - Description,1893,"« »Ja, in New York.« »Was für eine?«"," Es war ein so eigener Ton, in welchem er seine Fragen stellte, daß es fast unmöglich war, ihm die Antwort zu verweigern. ","Da ich ihm die Wahrheit nicht sagen durfte, erklärte ich ihm: »Ich bin engagiert von einem Bankier, in dessen Auftrag ich mich hier befinde.« ",May,392,,,,,,,,,
Negativbsp - Description,1930," Also schlug das schwarze, schmiedeeiserne Gitter hinter einem verwunderten Fremdling zu. ","Vermutlich waren danach noch die Bäume eines alten Parks hoch und dunkel in dem Licht elektrischer Lampen aufgewachsen, Fenster entbrannt, und die niederen Flügel eines boudoirhaft kleinen Schlösschens über kurz geschorenem, smaragdhaftem Rasen hatten sich ausgebreitet, man hatte ein wenig von den Wänden gesehen, die mit Bildern und bunten Bücherreihen bedeckt waren, und der verabschiedete Wagengefährte wurde von einem unerwartet schönen Dasein aufgenommen."," So hatte es sich ereignet, und während Ulrich noch überlegte, wie unangenehm es gewesen wäre, wenn er seine Zeit wieder für eines dieser Liebesabenteuer hätte hergeben müssen, deren er längst satt war, wurde ihm eine Dame gemeldet, die ihren Namen nicht nennen wollte und tief verschleiert bei ihm eintrat. ",Musil,358,,,,,,,,,
Negativbsp - Description,1924," Sie hatten den erhöhten Tisch am Fenster genommen, den hübschesten Platz. An dem cremefarbenen Vorhang saßen sie einander gegenüber, die Gesichter beglüht vom Schein des rot umhüllten elektrischen Tischlämpchens. Hans Castorp faltete seine frisch gewaschenen Hände und rieb sie behaglich-erwartungsvoll aneinander, wie er zu tun pflegte, wenn er sich zu Tische setzte, – vielleicht weil seine Vorfahren vor der Suppe gebetet hatten. Ein freundliches, gaumig sprechendes Mädchen in schwarzem Kleide mit weißer Schürze und einem großen Gesicht von überaus gesunder Farbe bediente sie, und zu seiner großen Heiterkeit ließ Hans Castorp sich belehren, daß man die Kellnerinnen hier »Saaltöchter« nenne. Sie bestellten eine Flasche Gruaud Larose bei ihr, die Hans Castorp noch einmal fortschickte, um sie besser temperieren zu lassen. Das Essen war vorzüglich.","Es gab Spargelsuppe, gefüllte Tomaten, Braten mit vielerlei Zutat, eine besonders gut bereitete süße Speise, eine Käseplatte und Obst. ","Hans Castorp aß sehr stark, obgleich sein Appetit sich nicht als so lebhaft erwies, wie er geglaubt hatte. Aber er war gewohnt, viel zu essen, auch wenn er keinen Hunger hatte, und zwar aus Selbstachtung. Joachim tat den Gerichten nicht viel Ehre an. Er hatte die Küche satt, sagte er, das hätten sie alle hier oben, und es sei Brauch, auf das Essen zu schimpfen; ",Mann,346,,,,,,,,,
Negativbsp - Description,1876," Unter der Eiche war ein Streifen des dichten Rasens aufgeschlitzt, nur einen Fuß breit, aber mehrere Ellen lang, die beiden Enden des Streifens hafteten noch locker am Grunde: in der Mitte war der Rasengürtel auf drei ungleich in die Erde gerammte hohe Speere emporgespreizt, in der Mitte von dem längsten Speer gestützt, so daß die Vorrichtung ein Dreieck bildete, unter dessen Dach zwischen den Speersäulen mehrere Männer bequem stehen konnten. ","In der so gewonnenen Erdritze stand ein eherner Kessel, mit Wasser gefüllt, daneben lag ein spitzes und scharfes Schlachtmesser, uralt: das Heft vom Horn des Auerstiers, die Klinge vom Feuerstein. ","Der Greis trat nun heran, stieß die Fackel dicht neben dem Kessel in die Erde, stieg dann, mit dem rechten Fuß vorauf, in die Grube, wandte sich gegen Osten und neigte das Haupt: dann winkte er die Freunde zu sich, mit dem Finger am Mund ihnen Schweigen bedeutend. ",Dahn,9,,,,,,,,,